Calculating Movement Path Metrics in R
…
This comes in handy for some of the data visualization we will be doing later. In addition, in this state, its simple to interogate the data, such as looking at how many records we have per individual:

albatross_sf %>% 
  group_by(individual_id) %>% 
  tally()

## Simple feature collection with 28 features and 2 fields
## geometry type:  MULTIPOINT
## dimension:      XY
## bbox:           xmin: -91.3732 ymin: -12.79464 xmax: -77.51874 ymax: 0.1821983
## epsg (SRID):    4326
## proj4string:    +proj=longlat +datum=WGS84 +no_defs
## # A tibble: 28 x 3
##    individual_id     n                                             geometry
##  * <chr>         <int>                                     <MULTIPOINT []>
##  1 2911059         757 (-91.3732 -2.555532, -91.35647 -2.549766, -91.3552 
##  2 2911060        1113 (-90.60519 -0.8766839, -90.58503 -1.132963, -90.580
##  3 2911061         182 (-89.96382 -1.498904, -89.93767 -1.405967, -89.9360
##  4 2911062         573 (-89.78324 -1.323679, -89.78296 -1.349104, -89.7814
##  5 2911063         757 (-90.23449 -0.9374604, -90.22138 -0.9420038, -90.20
##  6 2911064         633 (-89.91398 -1.210413, -89.89134 -1.437677, -89.8853
##  7 2911065         977 (-90.4803 -1.484479, -90.43625 -1.439869, -90.4063 
##  8 2911066         647 (-89.86878 -1.414297, -89.86041 -1.415959, -89.8503
##  9 2911067        1503 (-90.24489 -1.325544, -90.23058 -1.280133, -90.1990
## 10 2911074        1326 (-90.95079 -1.096899, -90.88568 -1.145157, -90.6931
## #  with 18 more rows
…
